{
    "prepare_queue": {
        "installed": [],
        "uninstalled": []
    },
    "config_munge": {
        "files": {}
    },
    "installed_plugins": {
        "cordova-plugin-whitelist": {
            "PACKAGE_NAME": "org.gocubed.isplit"
        },
        "cordova-plugin-media": {
            "PACKAGE_NAME": "org.gocubed.isplit"
        },
        "cordova-plugin-inappbrowser": {
            "PACKAGE_NAME": "org.gocubed.isplit"
        },
        "cordova-plugin-admobpro": {
            "PACKAGE_NAME": "org.gocubed.isplit"
        }
    },
    "dependent_plugins": {
        "cordova-plugin-compat": {
            "PACKAGE_NAME": "org.gocubed.isplit"
        },
        "cordova-plugin-file": {
            "PACKAGE_NAME": "org.gocubed.isplit"
        },
        "cordova-plugin-extension": {
            "PACKAGE_NAME": "org.gocubed.isplit"
        }
    }
}